Label,# Samples,Average,Min,Max,Std. Dev.,Error %,Throughput,Received KB/sec,Sent KB/sec,Avg. Bytes
/config.json-700,10,121,82,255,55.50,0.000%,.73556,0.29,0.27,397.0
/entries-702,10,307,227,525,100.67,0.000%,.73708,1.12,0.23,1555.8
/check-704,10,241,153,465,99.61,0.000%,.74555,0.49,0.31,672.7
/bycat-714,10,245,161,411,79.35,0.000%,.73981,0.66,0.28,914.3
/view-733,10,233,156,371,77.29,0.000%,.73981,0.63,0.29,866.3
/addtocart-735,10,239,172,451,81.79,0.000%,.74671,0.22,0.38,307.0
/bycat-763,10,230,158,448,107.04,0.000%,.73465,1.08,0.29,1507.8
/view-771,10,219,147,465,95.05,0.000%,.73148,0.57,0.29,797.8
/addtocart-773,10,245,172,419,80.84,0.000%,.74003,0.22,0.37,307.0
/bycat-801,10,222,168,385,67.37,0.000%,.74455,0.93,0.29,1283.0
/view-817,10,219,155,445,91.08,0.000%,.74867,0.53,0.29,731.5
/addtocart-821,10,269,175,467,104.99,0.000%,.74778,0.22,0.38,307.0
/viewcart-829,10,242,183,308,50.24,0.000%,.75712,0.52,0.33,699.3
/view-834,10,210,153,371,79.17,0.000%,.75592,0.57,0.29,774.2
/view-833,10,185,153,307,46.87,0.000%,.74716,0.63,0.29,867.5
/view-835,10,193,156,308,55.40,0.000%,.73910,0.59,0.28,811.7
TOTAL,160,226,82,525,90.56,0.000%,9.00546,7.04,3.68,800.0
